{
    "__LINKS__": {
        "input_data": "data_wm_final",

        // // `list` for list of dicts
        // // and `dict` for data or next link
        // // or `str` for single link
        // "input_data": [
        //     "data_wp_final",
        //     "data_wm_final",
        //     "data_wz_final",
        // ],
    },

    "__DATA__": {
        "__PATH_INPUT__":  {"input_data": "__PATH_INPUT__"},
        "__PATH_OUTPUT__": {"input_data": "__PATH_OUTPUT__"},
        "__SUBST__":       {"input_data": "__SUBST__"},

        // "bounds":     {"input_data": "bounds"},
        "bounds":       [],
        "phi_bound":            {"input_data": "phi_bound"},

        "decay_width_sum":      {"input_data": "decay_width_sum"},
        "decay_width_integral": {"input_data": "decay_width_integral"},
        "decay_width_zero":     {"input_data": "decay_width_zero"},

        "lambda_sum":           {"input_data": "lambda_sum"},
        "lambda_integral":      {"input_data": "lambda_integral"},
        "lambda_zero":          {"input_data": "lambda_zero"},

        "x_sum":                {"input_data": "x_sum"},
        "x_integral":           {"input_data": "x_integral"},
        "x_zero":               {"input_data": "x_zero"},
        "x_lambda_zero":        {"input_data": "x_lambda_zero"},

        "epsilon_sum":          {"input_data": "epsilon_sum"},
        "epsilon_integral":     {"input_data": "epsilon_integral"},
        "epsilon_zero":         {"input_data": "epsilon_zero"},
        "epsilon_lambda_zero":  {"input_data": "epsilon_lambda_zero"},

        "output_filename_linear_1": {"input_data": "output_filename_linear_1"},
        "output_filename_linear_2": {"input_data": "output_filename_linear_2"},
        "output_filename_linear_3": {"input_data": "output_filename_linear_3"},
        "output_filename_linear_4": {"input_data": "output_filename_linear_4"},
        "output_filename_log_1":    {"input_data": "output_filename_log_1"},
        "output_filename_log_2":    {"input_data": "output_filename_log_2"},
        "output_filename_log_3":    {"input_data": "output_filename_log_3"},
        "output_filename_log_4":    {"input_data": "output_filename_log_4"},

        "x_lim": {"input_data": "x_lim"},
        "eps_lim": {"input_data": "eps_lim"},
        "y_lim": {"input_data": "decay_width_lim"},
        "yl_lim": {"input_data": "lambda_lim"},

        "y_lim_log": {"input_data": "decay_width_lim_log"},
        "yl_lim_log": {"input_data": "lambda_lim_log"},

        // "y_lim": {"input_data": "decay_width_lim"},
        // "yl_lim": {"input_data": "lambda_lim"},
        // "y_lim": {"input_data": "y_lim"},
        // "y_lim": {"input_data": "y_lim_log"},
        // "yl_lim": {"input_data": "yl_lim"},
        // "yl_lim": {"input_data": "yl_lim_log"},
        // "x_lim": [],
        // "y_lim": [],
        // "yl_lim": [],

        // "y_scale": {"input_data": "y_scale"},
        // "y_scale": "linear",
        // "y_scale": "log",

        // "x_factor_lambda": {"input_data": "x_factor_lambda"},
        // "x_factor_decay_width": {"input_data": "x_factor_decay_width"},
        "y_factor_lambda": {"input_data": "y_factor_lambda"},
        "y_factor_decay_width": {"input_data": "y_factor_decay_width"},
        "y_factor_decay_width_log": {"input_data": "y_factor_decay_width_log"},

    },

    // for the present it has only links to __DATA__
    "__PLOTS__": [
    // LINEAR SCALE
        // #1 ================================================================================================
        {
            // "filename": "decay_width-s_0.05000-epsmax_5.0-p_50-w-integr-eps-wp-final.png",
            "filename": "output_filename_linear_1",
            // "title":   "Decay width $w(\varepsilon)$ for $\beta = 0.05000 \, m_W^2$; linear scale",
            // "title":   "Decay width $w(\varepsilon)$ for $\beta = {beta} \, m_W^2$; linear scale",
            // "x_label": {
            //     "xlabel": "$\varepsilon = E/m_W$",
            //     "fontsize": 20,
            // },
            "x_label": {
                "xlabel": "$\varepsilon = p_\perp/m_W$",
                "fontsize": 20,
            },
            // "y_label": {
            //     "$w(\varepsilon) \times 10^{{{y_power_decay_width}}}$ [cm$^{{-1}}$]",
            //     "fontsize": 20,
            // },
            "y_label": {
                "ylabel": "$w \times 10^{{{y_power_decay_width}}}$ [cm$^{{-1}}$]",
                "fontsize": 20,
            },

            "graphs": [
                {
                    "x_coordinate": "epsilon_zero",
                    "y_coordinate": "decay_width_zero",
                    "plot_settings_list": [
                        "k-",
                    ],
                    "plot_settings_dict": {},
                },
                {
                    "x_coordinate": "epsilon_sum",
                    "y_coordinate": "decay_width_sum",
                    // "abscissa": "",
                    // "ordinate": "",
                    "bounds": "bounds", // {"__DATA__": "bounds"}
                    "bounds_coordinate": "x_sum", // the coordinate by which bounds are applied
                    "plot_settings_list": [
                        // "b-",
                        "k-",
                    ],
                    "plot_settings_dict": {},
                },
                {
                    "x_coordinate": "epsilon_integral",
                    "y_coordinate": "decay_width_integral",
                    // "bounds": [],
                    // "bounds": "bounds_phi",
                    "bounds_coordinate": "x_integral",
                    "plot_settings_list": [
                        // "r--",
                        "k:",
                    ],
                    "x_max": "phi_bound",
                    // "y_min": "y_min",
                    // "y_max": "y_max",
                },
                {
                    "x_coordinate": "epsilon_integral",
                    "y_coordinate": "decay_width_integral",
                    // "bounds": [],
                    // "bounds": "bounds_phi",
                    "bounds_coordinate": "x_integral",
                    "plot_settings_list": [
                        // "r-",
                        "k--",
                    ],
                    "x_min": "phi_bound",
                    // "y_min": "y_min",
                    // "y_max": "y_max",
                },
            ],
            // "x_scale": "log",
            // "y_scale": "log",
            "y_scale": "linear",
            // "y_scale": "y_scale",
            "x_lim": "eps_lim",
            "y_lim": "y_lim",
            // "x_lim": [, ],
            // "y_lim": [1.0E-24, 1.0E-08],
            // "y_lim": [1.0E-24, 1.0E-05],
            "y_factor": "y_factor_decay_width",
        },
        // #2 ================================================================================================
        {
            // "filename": "lambda-s_0.05000-epsmax_5.0-p_50-w-integr-eps-wp-final.png",
            "filename": "output_filename_linear_2",
            // "title":   "Mean free path $\lambda(\varepsilon)$ for $\beta = 0.05000 \, m_W^2$; linear scale",
            // "title":   "Mean free path $\lambda(\varepsilon)$ for $\beta = {beta} \, m_W^2$; linear scale",
            // "x_label": {
            //     "xlabel": "$\varepsilon = E/m_W$",
            //     "fontsize": 20,
            // },
            "x_label": {
                "xlabel": "$\varepsilon = p_\perp/m_W$",
                "fontsize": 20,
            },
            // "y_label": {
            //     "$\lambda(\varepsilon)$ [cm]",
            //     "fontsize": 20,
            // },
            "y_label": {
                "ylabel": "$\lambda \times 10^{{{y_power_lambda}}}$ [cm]",
                "fontsize": 20,
            },

            "graphs": [
                {
                    "x_coordinate": "epsilon_lambda_zero",
                    "y_coordinate": "lambda_zero",
                    "plot_settings_list": [
                        "k-",
                    ],
                    "plot_settings_dict": {},
                },
                {
                    "x_coordinate": "epsilon_sum",
                    "y_coordinate": "lambda_sum",
                    // "abscissa": "",
                    // "ordinate": "",
                    "bounds": "bounds", // {"__DATA__": "bounds"}
                    "bounds_coordinate": "x_sum", // the coordinate by which bounds are applied
                    "plot_settings_list": [
                        // "b-",
                        "k-",
                    ],
                },
                {
                    "x_coordinate": "epsilon_integral",
                    "y_coordinate": "lambda_integral",
                    // "bounds": "bounds", // {"__DATA__": "bounds"}
                    "bounds_coordinate": "x_integral",
                    "plot_settings_list": [
                        // "r--",
                        "k:",
                    ],
                    "x_max": "phi_bound",
                    // "y_min": "y_min",
                    // "y_max": "y_max",
                },
                {
                    "x_coordinate": "epsilon_integral",
                    "y_coordinate": "lambda_integral",
                    // "bounds": "bounds", // {"__DATA__": "bounds"}
                    "bounds_coordinate": "x_integral",
                    "plot_settings_list": [
                        // "r-",
                        "k--",
                    ],
                    "x_min": "phi_bound",
                    // "y_min": "y_min",
                    // "y_max": "y_max",
                },
            ],
            // "x_scale": "log",
            // "y_scale": "log",
            "y_scale": "linear",
            // "y_scale": "y_scale",
            "x_lim": "eps_lim",
            "y_lim": "yl_lim",
            // "x_lim": [, ],
            // "y_lim": [1.0E-06, 1.0E+11],
            // "y_lim": [5.0E-05, 2.0E+10],
            "y_factor": "y_factor_lambda",
        },
        // #3 ================================================================================================
        {
            // "filename": "decay_width-s_0.05000-epsmax_5.0-p_50-w-integr-x-wp-final.png",
            "filename": "output_filename_linear_3",
            // "title":   "Decay width $w(x)$ for $\beta = 0.05000 \, m_W^2$; linear scale",
            // "title":   "Decay width $w(x)$ for $\beta = {beta} \, m_W^2$; linear scale",
            "x_label": {
                "xlabel": "$x = p_\perp^2/(2 \beta)$",
                "fontsize": 20,
            },
            // "y_label": {
            //     "$w(x) \times 10^{{{y_power_decay_width}}}$ [cm$^{{-1}}$]",
            //     "fontsize": 20,
            // },
            "y_label": {
                "ylabel": "$w \times 10^{{{y_power_decay_width}}}$ [cm$^{{-1}}$]",
                "fontsize": 20,
            },

            "graphs": [
                {
                    "x_coordinate": "x_zero",
                    "y_coordinate": "decay_width_zero",
                    "plot_settings_list": [
                        "k-",
                    ],
                    "plot_settings_dict": {},
                },
                {
                    "x_coordinate": "x_sum",
                    "y_coordinate": "decay_width_sum",
                    // "abscissa": "",
                    // "ordinate": "",
                    "bounds": "bounds", // {"__DATA__": "bounds"}
                    "plot_settings_list": [
                        // "b-",
                        "k-",
                    ],
                    "plot_settings_dict": {},
                },
                {
                    "x_coordinate": "x_integral",
                    "y_coordinate": "decay_width_integral",
                    // "bounds": [],
                    "plot_settings_list": [
                        // "r--",
                        "k:",
                    ],
                    "x_max": "phi_bound",
                    // "y_min": "y_min",
                    // "y_max": "y_max",
                },
                {
                    "x_coordinate": "x_integral",
                    "y_coordinate": "decay_width_integral",
                    // "bounds": [],
                    "plot_settings_list": [
                        // "r-",
                        "k--",
                    ],
                    "x_min": "phi_bound",
                    // "y_min": "y_min",
                    // "y_max": "y_max",
                },
            ],
            // "x_scale": "log",
            // "y_scale": "log",
            "y_scale": "linear",
            // "y_scale": "y_scale",
            "x_lim": "x_lim",
            "y_lim": "y_lim",
            // "x_lim": [, ],
            // "y_lim": [1.0E-24, 1.0E-08],
            // "y_lim": [1.0E-24, 1.0E-05],
            "y_factor": "y_factor_decay_width",
        },
        // #4 ================================================================================================
        {
            // "filename": "lambda-s_0.05000-epsmax_5.0-p_50-w-integr-x-wp-final.png",
            "filename": "output_filename_linear_4",
            // "title":   "Mean free path $\lambda(x)$ for $\beta = 0.05000 \, m_W^2$; linear scale",
            // "title":   "Mean free path $\lambda(x)$ for $\beta = {beta} \, m_W^2$; linear scale",
            "x_label": {
                "xlabel": "$x = p_\perp^2/(2 \beta)$",
                "fontsize": 20,
            },
            // "y_label": {
            //     "$\lambda(x)$ [cm]",
            //     "fontsize": 20,
            // },
            "y_label": {
                "ylabel": "$\lambda \times 10^{{{y_power_lambda}}}$ [cm]",
                "fontsize": 20,
            },

            "graphs": [
                {
                    "x_coordinate": "x_lambda_zero",
                    "y_coordinate": "lambda_zero",
                    "plot_settings_list": [
                        "k-",
                    ],
                    "plot_settings_dict": {},
                },
                {
                    "x_coordinate": "x_sum",
                    "y_coordinate": "lambda_sum",
                    // "abscissa": "",
                    // "ordinate": "",
                    "bounds": "bounds", // {"__DATA__": "bounds"}
                    "plot_settings_list": [
                        // "b-",
                        "k-",
                    ],
                },
                {
                    "x_coordinate": "x_integral",
                    "y_coordinate": "lambda_integral",
                    // "bounds": "bounds", // {"__DATA__": "bounds"}
                    "plot_settings_list": [
                        // "r--",
                        "k:",
                    ],
                    "x_max": "phi_bound",
                    // "y_min": "y_min",
                    // "y_max": "y_max",
                },
                {
                    "x_coordinate": "x_integral",
                    "y_coordinate": "lambda_integral",
                    // "bounds": "bounds", // {"__DATA__": "bounds"}
                    "plot_settings_list": [
                        // "r-",
                        "k--",
                    ],
                    "x_min": "phi_bound",
                    // "y_min": "y_min",
                    // "y_max": "y_max",
                },
            ],
            // "x_scale": "log",
            // "y_scale": "log",
            "y_scale": "linear",
            // "y_scale": "y_scale",
            "x_lim": "x_lim",
            "y_lim": "yl_lim",
            // "x_lim": [, ],
            // "y_lim": [1.0E-06, 1.0E+11],
            // "y_lim": [5.0E-05, 2.0E+10],
            "y_factor": "y_factor_lambda",
        },

    // LOGARITHMIC SCALE
        // #1 ================================================================================================
        {
            // "filename": "decay_width-s_0.05000-epsmax_5.0-p_50-w-integr-eps-wp-final.png",
            "filename": "output_filename_log_1",
            // "title":   "Decay width $w(\varepsilon)$ for $\beta = 0.05000 \, m_W^2$; logarithmic scale",
            // "title":   "Decay width $w(\varepsilon)$ for $\beta = {beta} \, m_W^2$; logarithmic scale",
            // "x_label": {
            //     "xlabel": "$\varepsilon = E/m_W$",
            //     "fontsize": 20,
            // },
            "x_label": {
                "xlabel": "$\varepsilon = p_\perp/m_W$",
                "fontsize": 20,
            },
            // "y_label": {
            //     "$w(\varepsilon)$ [cm$^{{-1}}$]",
            //     "fontsize": 20,
            // },
            "y_label": {
                "ylabel": "$w$ [cm$^{{-1}}$]",
                "fontsize": 20,
            },

            "graphs": [
                {
                    "x_coordinate": "epsilon_sum",
                    "y_coordinate": "decay_width_sum",
                    // "abscissa": "",
                    // "ordinate": "",
                    "bounds": "bounds", // {"__DATA__": "bounds"}
                    "bounds_coordinate": "x_sum", // the coordinate by which bounds are applied
                    "plot_settings_list": [
                        // "b-",
                        "k-",
                    ],
                    "plot_settings_dict": {},
                },
                {
                    "x_coordinate": "epsilon_integral",
                    "y_coordinate": "decay_width_integral",
                    // "bounds": [],
                    // "bounds": "bounds_phi",
                    "bounds_coordinate": "x_integral",
                    "plot_settings_list": [
                        // "r--",
                        "k:",
                    ],
                    "x_max": "phi_bound",
                    // "y_min": "y_min",
                    // "y_max": "y_max",
                },
                {
                    "x_coordinate": "epsilon_integral",
                    "y_coordinate": "decay_width_integral",
                    // "bounds": [],
                    // "bounds": "bounds_phi",
                    "bounds_coordinate": "x_integral",
                    "plot_settings_list": [
                        // "r-",
                        "k--",
                    ],
                    "x_min": "phi_bound",
                    // "y_min": "y_min",
                    // "y_max": "y_max",
                },
            ],
            // "x_scale": "log",
            "y_scale": "log",
            // "y_scale": "y_scale",
            "x_lim": "eps_lim",
            // "y_lim": "y_lim",
            "y_lim": "y_lim_log",
            // "x_lim": [, ],
            // "y_lim": [1.0E-24, 1.0E-08],
            // "y_lim": [1.0E-24, 1.0E-05],
            "y_factor": "y_factor_decay_width_log",
        },
        // #2 ================================================================================================
        {
            // "filename": "lambda-s_0.05000-epsmax_5.0-p_50-w-integr-eps-wp-final.png",
            "filename": "output_filename_log_2",
            // "title":   "Mean free path $\lambda(\varepsilon)$ for $\beta = 0.05000 \, m_W^2$; logarithmic scale",
            // "title":   "Mean free path $\lambda(\varepsilon)$ for $\beta = {beta} \, m_W^2$; logarithmic scale",
            // "x_label": {
            //     "xlabel": "$\varepsilon = E/m_W$",
            //     "fontsize": 20,
            // },
            "x_label": {
                "xlabel": "$\varepsilon = p_\perp/m_W$",
                "fontsize": 20,
            },
            // "y_label": {
            //     "$\lambda(\varepsilon)$ [cm]",
            //     "fontsize": 20,
            // },
            "y_label": {
                "ylabel": "$\lambda$ [cm]",
                "fontsize": 20,
            },

            "graphs": [
                {
                    "x_coordinate": "epsilon_sum",
                    "y_coordinate": "lambda_sum",
                    // "abscissa": "",
                    // "ordinate": "",
                    "bounds": "bounds", // {"__DATA__": "bounds"}
                    "bounds_coordinate": "x_sum", // the coordinate by which bounds are applied
                    "plot_settings_list": [
                        // "b-",
                        "k-",
                    ],
                },
                {
                    "x_coordinate": "epsilon_integral",
                    "y_coordinate": "lambda_integral",
                    // "bounds": "bounds", // {"__DATA__": "bounds"}
                    "bounds_coordinate": "x_integral",
                    "plot_settings_list": [
                        // "r--",
                        "k:",
                    ],
                    "x_max": "phi_bound",
                    // "y_min": "y_min",
                    // "y_max": "y_max",
                },
                {
                    "x_coordinate": "epsilon_integral",
                    "y_coordinate": "lambda_integral",
                    // "bounds": "bounds", // {"__DATA__": "bounds"}
                    "bounds_coordinate": "x_integral",
                    "plot_settings_list": [
                        // "r-",
                        "k--",
                    ],
                    "x_min": "phi_bound",
                    // "y_min": "y_min",
                    // "y_max": "y_max",
                },
            ],
            // "x_scale": "log",
            "y_scale": "log",
            // "y_scale": "y_scale",
            "x_lim": "eps_lim",
            // "y_lim": "yl_lim",
            "y_lim": "yl_lim_log",
            // "x_lim": [, ],
            // "y_lim": [1.0E-06, 1.0E+11],
            // "y_lim": [5.0E-05, 2.0E+10],
        },
        // #3 ================================================================================================
        {
            // "filename": "decay_width-s_0.05000-epsmax_5.0-p_50-w-integr-x-wp-final.png",
            "filename": "output_filename_log_3",
            // "title":   "Decay width $w(x)$ for $\beta = 0.05000 \, m_W^2$; logarithmic scale",
            // "title":   "Decay width $w(x)$ for $\beta = {beta} \, m_W^2$; logarithmic scale",
            "x_label": {
                "xlabel": "$x = p_\perp^2/(2 \beta)$",
                "fontsize": 20,
            },
            // "y_label": {
            //     "$w(x)$ [cm$^{{-1}}$]",
            //     "fontsize": 20,
            // },
            "y_label": {
                "ylabel": "$w$ [cm$^{{-1}}$]",
                "fontsize": 20,
            },

            "graphs": [
                {
                    "x_coordinate": "x_sum",
                    "y_coordinate": "decay_width_sum",
                    // "abscissa": "",
                    // "ordinate": "",
                    "bounds": "bounds", // {"__DATA__": "bounds"}
                    "plot_settings_list": [
                        // "b-",
                        "k-",
                    ],
                    "plot_settings_dict": {},
                },
                {
                    "x_coordinate": "x_integral",
                    "y_coordinate": "decay_width_integral",
                    // "bounds": [],
                    "plot_settings_list": [
                        // "r--",
                        "k:",
                    ],
                    "x_max": "phi_bound",
                    // "y_min": "y_min",
                    // "y_max": "y_max",
                },
                {
                    "x_coordinate": "x_integral",
                    "y_coordinate": "decay_width_integral",
                    // "bounds": [],
                    "plot_settings_list": [
                        // "r-",
                        "k--",
                    ],
                    "x_min": "phi_bound",
                    // "y_min": "y_min",
                    // "y_max": "y_max",
                },
            ],
            // "x_scale": "log",
            "y_scale": "log",
            // "y_scale": "y_scale",
            "x_lim": "x_lim",
            // "y_lim": "y_lim",
            "y_lim": "y_lim_log",
            // "x_lim": [, ],
            // "y_lim": [1.0E-24, 1.0E-08],
            // "y_lim": [1.0E-24, 1.0E-05],
            "y_factor": "y_factor_decay_width_log",
        },
        // #4 ================================================================================================
        {
            // "filename": "lambda-s_0.05000-epsmax_5.0-p_50-w-integr-x-wp-final.png",
            "filename": "output_filename_log_4",
            // "title":   "Mean free path $\lambda(x)$ for $\beta = 0.05000 \, m_W^2$; logarithmic scale",
            // "title":   "Mean free path $\lambda(x)$ for $\beta = {beta} \, m_W^2$; logarithmic scale",
            "x_label": {
                "xlabel": "$x = p_\perp^2/(2 \beta)$",
                "fontsize": 20,
            },
            // "y_label": {
            //     "$\lambda(x)$ [cm]",
            //     "fontsize": 20,
            // },
            "y_label": {
                "ylabel": "$\lambda$ [cm]",
                "fontsize": 20,
            },

            "graphs": [
                {
                    "x_coordinate": "x_sum",
                    "y_coordinate": "lambda_sum",
                    // "abscissa": "",
                    // "ordinate": "",
                    "bounds": "bounds", // {"__DATA__": "bounds"}
                    "plot_settings_list": [
                        // "b-",
                        "k-",
                    ],
                },
                {
                    "x_coordinate": "x_integral",
                    "y_coordinate": "lambda_integral",
                    // "bounds": "bounds", // {"__DATA__": "bounds"}
                    "plot_settings_list": [
                        // "r--",
                        "k:",
                    ],
                    "x_max": "phi_bound",
                    // "y_min": "y_min",
                    // "y_max": "y_max",
                },
                {
                    "x_coordinate": "x_integral",
                    "y_coordinate": "lambda_integral",
                    // "bounds": "bounds", // {"__DATA__": "bounds"}
                    "plot_settings_list": [
                        // "r-",
                        "k--",
                    ],
                    "x_min": "phi_bound",
                    // "y_min": "y_min",
                    // "y_max": "y_max",
                },
            ],
            // "x_scale": "log",
            "y_scale": "log",
            // "y_scale": "y_scale",
            "x_lim": "x_lim",
            // "y_lim": "yl_lim",
            "y_lim": "yl_lim_log",
            // "x_lim": [, ],
            // "y_lim": [1.0E-06, 1.0E+11],
            // "y_lim": [5.0E-05, 2.0E+10],
        },
    ],
// 
// ::: begin of DATA :::
// ===============================================================================
    "data_wm_final": {
        "__PATH_INPUT__":  "_bin/",
        "__PATH_OUTPUT__": "_images/plotter_output/paper-wm-final/",

        "__SUBST__": [
            // {
            //     "beta": "0.50000", "p": "200", "phi_bound":  0.5,
            //     "decay_width_lim": [0.0, 1.5E+00], "decay_width_lim_log": [5.0E-02, 7.0E+00],
            //     "lambda_lim":      [0.0, 2.0E-13], "lambda_lim_log":      [5.0E-15, 2.0E-13],
            //     "eps_lim":         [0.0, 5.0],     "x_lim":               [0.0, 25.0],
            //     "y_power_lambda":           13,    "y_factor_lambda":     1.0E+13,
            //     "y_power_decay_width":     -14,
            //     "y_factor_decay_width":     5.06773075889414843750E-01,
            //     "y_factor_decay_width_log": 5.06773075889414843750E+13,
            // },
            // {
            //     "beta": "0.60000", "p": "2000", "phi_bound":  0.33333333333333333333333333333333,
            //     "decay_width_lim": [0.0, 2.0E+00], "decay_width_lim_log": [1.0E-01, 4.0E+00],
            //     "lambda_lim":      [0.0, 1.5E-13], "lambda_lim_log":      [7.0E-15, 2.0E-13],
            //     "eps_lim":         [0.0, 5.0],     "x_lim":               [0.0, 22.0],
            //     "y_power_lambda":           13,    "y_factor_lambda":     1.0E+13,
            //     "y_power_decay_width":     -14,
            //     "y_factor_decay_width":     5.06773075889414843750E-01,
            //     "y_factor_decay_width_log": 5.06773075889414843750E+13,
            // },
            // {
            //     "beta": "0.70000", "p": "2000", "phi_bound":  0.21428571428571428571428571428571,
            //     "decay_width_lim": [0.0, 2.5E+00], "decay_width_lim_log": [1.0E-01, 5.0E+00],
            //     "lambda_lim":      [0.0, 1.0E-13], "lambda_lim_log":      [6.0E-15, 1.0E-13],
            //     "eps_lim":         [0.0, 5.0],     "x_lim":               [0.0, 19.0],
            //     "y_power_lambda":           13,    "y_factor_lambda":     1.0E+13,
            //     "y_power_decay_width":     -14,
            //     "y_factor_decay_width":     5.06773075889414843750E-01,
            //     "y_factor_decay_width_log": 5.06773075889414843750E+13,
            // },
            // {
            //     "beta": "0.80000", "p": "2000", "phi_bound":  0.125,
            //     "decay_width_lim": [0.0, 3.0E+00], "decay_width_lim_log": [2.0E-01, 6.0E+00],
            //     "lambda_lim":      [0.0, 8.0E-14], "lambda_lim_log":      [5.0E-15, 8.0E-14],
            //     "eps_lim":         [0.0, 5.0],     "x_lim":               [0.0, 16.0],
            //     "y_power_lambda":           14,    "y_factor_lambda":     1.0E+14,
            //     "y_power_decay_width":     -14,
            //     "y_factor_decay_width":     5.06773075889414843750E-01,
            //     "y_factor_decay_width_log": 5.06773075889414843750E+13,
            // },
            {
                "beta": "0.05000", "p": "200", "phi_bound":  9.5,
                "decay_width_lim": [0.0, 2.7625777031325556530594322879323954111896455287933349609375E-03], "decay_width_lim_log": [1.0E-06, 2.7625777031325556530594322879323954111896455287933349609375E-03],
                "lambda_lim":      [0.0, 1.2E-08], "lambda_lim_log":      [4.0E-12, 2.0E-08],
                "eps_lim":         [0.0, 2.0],     "x_lim":               [0.0, 40.0],
                "y_power_lambda":           "8",   "y_factor_lambda":     1.0E+08,
                "y_power_decay_width":      "-11",
                "y_factor_decay_width":     5.06773075889414843750E+02,
                "y_factor_decay_width_log": 5.06773075889414843750E+13,
            },
            {
                "beta": "0.10000", "p": "200", "phi_bound":  4.5,
                "decay_width_lim": [0.0, 1.5786158303614603990115007455583E-02], "decay_width_lim_log": [5.0E-04, 1.5786158303614603990115007455583E-02],
                "lambda_lim":      [0.0, 4.0E-11], "lambda_lim_log":      [1.0E-12, 4.0E-11],
                "eps_lim":         [0.0, 2.0],     "x_lim":               [0.0, 22.0],
                "y_power_lambda":           "11",  "y_factor_lambda":     1.0E+11,
                "y_power_decay_width":      "-12",
                "y_factor_decay_width":     5.06773075889414843750E+01,
                "y_factor_decay_width_log": 5.06773075889414843750E+13,
            },
            {
                "beta": "0.90000", "p": "2000", "phi_bound":  0.055555555555555555555555555555556,
                "decay_width_lim": [0.0, 4.0E+00], "decay_width_lim_log":  [3.0E-01, 7.0E+00],
                "lambda_lim":      [0.0, 7.0E-14], "lambda_lim_log":       [3.0E-15, 7.0E-14],
                "eps_lim":         [0.0, 5.0],     "x_lim":                [0.0, 14.0],
                "y_power_lambda":           "14",  "y_factor_lambda":      1.0E+14,
                "y_power_decay_width":      "-14",
                "y_factor_decay_width":     5.06773075889414843750E-01,
                "y_factor_decay_width_log": 5.06773075889414843750E+13,
            },
        ],

        "phi_bound": {"__SUBST__": "phi_bound"},
        "x_lim": {"__SUBST__": "x_lim"},
        "eps_lim": {"__SUBST__": "eps_lim"},

        "y_lim": {"__SUBST__": "decay_width_lim"},
        "yl_lim": {"__SUBST__": "lambda_lim"},
        "y_lim_log": {"__SUBST__": "decay_width_lim_log"},
        "yl_lim_log": {"__SUBST__": "lambda_lim_log"},

        "decay_width_lim": {"__SUBST__": "decay_width_lim"},
        "lambda_lim": {"__SUBST__": "lambda_lim"},
        "decay_width_lim_log": {"__SUBST__": "decay_width_lim_log"},
        "lambda_lim_log": {"__SUBST__": "lambda_lim_log"},

        "y_power_lambda": {"__SUBST__": "y_power_lambda"},
        "y_factor_lambda": {"__SUBST__": "y_factor_lambda"},
        "y_power_decay_width": {"__SUBST__": "y_power_decay_width"},
        "y_factor_decay_width": {"__SUBST__": "y_factor_decay_width"},
        "y_factor_decay_width_log": {"__SUBST__": "y_factor_decay_width_log"},

        "bounds":                   "s_{beta}-epsmax_5.0-p_{p}-w-integr-wm-final/bounds.bin",
        "decay_width_sum":          "s_{beta}-epsmax_5.0-p_{p}-w-integr-wm-final/decay_width_s.bin",
        "lambda_sum":               "s_{beta}-epsmax_5.0-p_{p}-w-integr-wm-final/lambda_s.bin",
        "epsilon_sum":              "s_{beta}-epsmax_5.0-p_{p}-w-integr-wm-final/epsilon_s.bin",
        "x_sum":                    "s_{beta}-epsmax_5.0-p_{p}-w-integr-wm-final/x_s.bin",
        "decay_width_integral":     "s_{beta}-epsmax_5.0-p_{p}-w-integr-wm-final/decay_width_i.bin",
        "lambda_integral":          "s_{beta}-epsmax_5.0-p_{p}-w-integr-wm-final/lambda_i.bin",
        "epsilon_integral":         "s_{beta}-epsmax_5.0-p_{p}-w-integr-wm-final/epsilon_i.bin",
        "x_integral":               "s_{beta}-epsmax_5.0-p_{p}-w-integr-wm-final/x_i.bin",
        "decay_width_zero":         "s_{beta}-epsmax_5.0-p_{p}-w-integr-wm-final/decay_width_z.bin",
        "lambda_zero":              "s_{beta}-epsmax_5.0-p_{p}-w-integr-wm-final/lambda_z.bin",
        "epsilon_zero":             "s_{beta}-epsmax_5.0-p_{p}-w-integr-wm-final/epsilon_z.bin",
        "epsilon_lambda_zero":      "s_{beta}-epsmax_5.0-p_{p}-w-integr-wm-final/epsilon_lambda_z.bin",
        "x_zero":                   "s_{beta}-epsmax_5.0-p_{p}-w-integr-wm-final/x_z.bin",
        "x_lambda_zero":            "s_{beta}-epsmax_5.0-p_{p}-w-integr-wm-final/x_lambda_z.bin",

        "output_filename_linear_1": "decay_width-s_{beta}-epsmax_5.0-p_{p}-w-integr-eps-wm-final-linear.png",
        "output_filename_linear_2": "lambda-s_{beta}-epsmax_5.0-p_{p}-w-integr-eps-wm-final-linear.png",
        "output_filename_linear_3": "decay_width-s_{beta}-epsmax_5.0-p_{p}-w-integr-x-wm-final-linear.png",
        "output_filename_linear_4": "lambda-s_{beta}-epsmax_5.0-p_{p}-w-integr-x-wm-final-linear.png",
        "output_filename_log_1":    "decay_width-s_{beta}-epsmax_5.0-p_{p}-w-integr-eps-wm-final-log.png",
        "output_filename_log_2":    "lambda-s_{beta}-epsmax_5.0-p_{p}-w-integr-eps-wm-final-log.png",
        "output_filename_log_3":    "decay_width-s_{beta}-epsmax_5.0-p_{p}-w-integr-x-wm-final-log.png",
        "output_filename_log_4":    "lambda-s_{beta}-epsmax_5.0-p_{p}-w-integr-x-wm-final-log.png",
    },
}
